\relax 
\providecommand\hyper@newdestlabel[2]{}
\providecommand\HyperFirstAtBeginDocument{\AtBeginDocument}
\HyperFirstAtBeginDocument{\ifx\hyper@anchor\@undefined
\global\let\oldcontentsline\contentsline
\gdef\contentsline#1#2#3#4{\oldcontentsline{#1}{#2}{#3}}
\global\let\oldnewlabel\newlabel
\gdef\newlabel#1#2{\newlabelxx{#1}#2}
\gdef\newlabelxx#1#2#3#4#5#6{\oldnewlabel{#1}{{#2}{#3}}}
\AtEndDocument{\ifx\hyper@anchor\@undefined
\let\contentsline\oldcontentsline
\let\newlabel\oldnewlabel
\fi}
\fi}
\global\let\hyper@last\relax 
\gdef\HyperFirstAtBeginDocument#1{#1}
\providecommand\HyField@AuxAddToFields[1]{}
\providecommand\HyField@AuxAddToCoFields[2]{}
\babel@aux{croatian}{}
\@writefile{toc}{\contentsline {chapter}{\numberline {1}Uvod}{1}{chapter.1}\protected@file@percent }
\@writefile{lof}{\addvspace {10\p@ }}
\@writefile{lot}{\addvspace {10\p@ }}
\@writefile{toc}{\contentsline {chapter}{\numberline {2}Problem prepoznavanja akcija}{2}{chapter.2}\protected@file@percent }
\@writefile{lof}{\addvspace {10\p@ }}
\@writefile{lot}{\addvspace {10\p@ }}
\citation{ucf101}
\@writefile{toc}{\contentsline {chapter}{\numberline {3}Skupovi podataka}{4}{chapter.3}\protected@file@percent }
\@writefile{lof}{\addvspace {10\p@ }}
\@writefile{lot}{\addvspace {10\p@ }}
\@writefile{toc}{\contentsline {section}{\numberline {3.1}Skup podataka UCF-101}{4}{section.3.1}\protected@file@percent }
\@writefile{lof}{\contentsline {figure}{\numberline {3.1}{\ignorespaces Ukupna i prosje\IeC {\v c}na duljina trajanja videa po svim kategorijama skupa.\relax }}{4}{figure.caption.2}\protected@file@percent }
\@writefile{toc}{\contentsline {section}{\numberline {3.2}Skup podataka DeepMind Kinetics}{4}{section.3.2}\protected@file@percent }
\@writefile{toc}{\contentsline {chapter}{\numberline {4}Naivni (baseline) model}{6}{chapter.4}\protected@file@percent }
\@writefile{lof}{\addvspace {10\p@ }}
\@writefile{lot}{\addvspace {10\p@ }}
\@writefile{lof}{\contentsline {figure}{\numberline {4.1}{\ignorespaces \relax }}{6}{figure.caption.3}\protected@file@percent }
\@writefile{toc}{\contentsline {chapter}{\numberline {5}3D prostorno-vremenske konvolucijske neuronske mre\IeC {\v z}e}{7}{chapter.5}\protected@file@percent }
\@writefile{lof}{\addvspace {10\p@ }}
\@writefile{lot}{\addvspace {10\p@ }}
\@writefile{lof}{\contentsline {figure}{\numberline {5.1}{\ignorespaces \relax }}{8}{figure.caption.4}\protected@file@percent }
\bibdata{literatura}
\@writefile{toc}{\contentsline {chapter}{\numberline {6}Zaklju\IeC {\v c}ak}{9}{chapter.6}\protected@file@percent }
\@writefile{lof}{\addvspace {10\p@ }}
\@writefile{lot}{\addvspace {10\p@ }}
\bibcite{ucf101}{{1}{2012}{{Soomro et~al.}}{{Soomro, Zamir, i Shah}}}
\bibstyle{fer}
\@writefile{toc}{\contentsline {chapter}{Literatura}{10}{chapter*.5}\protected@file@percent }
